Nombre de rames; Passagers heures
1;1053.1053105310532
2;2106.2106210621064
3;3133.9285714285716
4;4178.571428571428
5;5181.5766164747565
6;6217.891939769707
7;7196.836555360282
8;8224.956063268894
9;9180.47079337402
10;10200.52310374891
11;11142.857142857143
12;12155.844155844155
13;13067.01030927835
14;14072.164948453608
15;14948.892674616694
16;15945.485519591142
17;16827.41116751269
18;17817.25888324873
19;18680.67226890756
20;19663.865546218487
21;20492.076730608842
22;21467.889908256882
23;22276.490066225164
24;23245.03311258278
25;24054.276315789473
26;25016.447368421053
27;25808.823529411766
28;26764.70588235294
29;27518.24817518248
30;28467.153284671534
31;29226.430298146657
32;30169.21837228042
33;30912.730184147316
34;31849.479583666933
35;32603.503184713376
36;33535.03184713376
37;34221.343873517784
38;35146.245059288536
39;35844.46190102121
40;36763.55066771406
41;37447.306791569084
42;38360.65573770492
43;39060.55900621118
44;39968.94409937888
45;40625.0
46;41527.77777777778
47;42170.245398773004
48;43067.48466257669
49;43729.9771167048
50;44622.42562929062
51;45238.817285822595
52;46125.852918877936
53;46764.705882352944
54;47647.05882352941
55;48274.56864216054
56;49152.288072018004
57;49768.65671641791
58;50641.79104477612
59;51209.19881305638
60;52077.15133531157
61;52710.48744460857
62;53574.59379615953
63;54158.706833210876
64;55018.368846436446
65;55592.10526315789
66;56447.36842105263
67;57010.90909090909
68;57861.818181818184
69;58415.34008683068
70;59261.939218523876
71;59848.70317002882
72;60691.64265129683
73;61225.8064516129
74;62064.51612903226
75;62633.832976445396
76;63468.95074946467
77;63984.375
78;64815.34090909091
79;65367.75106082037
80;66195.1909476662
81;66739.43661971831
82;67563.38028169014
83;68099.57924263674
84;68920.05610098176
85;69448.32402234637
86;70265.36312849162
87;70785.81363004172
88;71599.44367176635
89;72112.18836565097
90;72922.43767313019
91;73427.58620689655
92;74234.4827586207
93;74732.14285714286
94;75535.71428571429
95;76025.99179206566
96;76826.26538987688
97;77361.96319018405
98;78159.50920245399
99;78635.43788187373
100;79429.73523421588
101;79898.58012170385
102;80689.6551724138
103;81206.19946091644
104;81994.60916442049
105;82505.03693754197
106;83290.79919409
107;83739.13043478261
108;84521.73913043478
109;85020.0
110;85800.0
111;86235.05976095618
112;87011.95219123506
113;87498.34546657842
114;88272.66710787558
115;88753.2981530343
116;89525.06596306068
117;90000.0
118;90769.23076923077
119;91238.53211009175
120;92005.24246395806
121;92468.9745264533
122;93233.18092749837
123;93691.40625
124;94453.125
125;94905.90525632707
126;95665.15249837768
127;96174.7572815534
128;96932.03883495145
129;97311.41199226305
130;98065.76402321084
131;98565.91639871383
132;99318.32797427653
133;99750.0
134;100500.0
135;100991.04859335038
136;101739.13043478261
137;102160.61185468451
138;102906.30975143403
139;103322.74459974587
140;104066.07369758577
141;104543.72623574144
142;105285.1711026616
143;105691.72457359445
144;106430.82754264056
145;106899.81096408318
146;107637.05103969754
147;108101.82275298555
148;108837.20930232559
149;109229.32330827067
150;109962.40601503759
